Client for the PIP API • pipr
…
Access data dictionary

get_dictionary()
#> # A tibble: 41 x 2
#>    variable        definition                                                   
#>    <chr>           <chr>                                                        
#>  1 region_name     World Bank region name                                       
#>  2 region_code     Three-letter World Bank abbreviation of world regions        
#>  3 year            Year                                                         
#>  4 country_name    World Bank country name                                      
#>  5 country_code    Three-letter ISO (alpha-3) country code system for internati~
#>  6 reporting_level Reporting level                                              
#>  7 survey_acronym  Country survey acronym                                       
#>  8 survey_coverage Geographic coverage of the country survey (i.e. national, ur~
#>  9 welfare_time    Welfare time                                                 
#> 10 welfare_type    Type of welfare vector used for estimates (income or consump~
#> # ... with 31 more rows
…
