…
call_aux("pop")
#> # A tibble: 650 x 46
#>    country_code data_l~1 `1977` `1978` `1979` `1980` `1981` `1982` `1983` `1984`
#>    <chr>        <chr>     <dbl>  <dbl>  <dbl>  <dbl>  <dbl>  <dbl>  <dbl>  <dbl>
#>  1 ABW          national 6.04e4 6.01e4 6.00e4 6.01e4 6.06e4 6.13e4 6.22e4 6.28e4
#>  2 ABW          rural    2.99e4 2.97e4 2.97e4 2.98e4 3.00e4 3.04e4 3.08e4 3.12e4
#>  3 ABW          urban    3.05e4 3.04e4 3.03e4 3.03e4 3.06e4 3.09e4 3.14e4 3.17e4
#>  4 AFG          national 1.32e7 1.33e7 1.34e7 1.34e7 1.32e7 1.29e7 1.25e7 1.22e7
#>  5 AFG          rural    1.13e7 1.13e7 1.13e7 1.12e7 1.10e7 1.07e7 1.03e7 9.96e6
#>  6 AFG          urban    1.91e6 2.00e6 2.07e6 2.14e6 2.18e6 2.21e6 2.23e6 2.24e6
#>  7 AGO          national 7.53e6 7.79e6 8.06e6 8.34e6 8.64e6 8.95e6 9.28e6 9.61e6
#>  8 AGO          rural    5.95e6 6.07e6 6.19e6 6.31e6 6.44e6 6.57e6 6.70e6 6.82e6
#>  9 AGO          urban    1.59e6 1.72e6 1.87e6 2.03e6 2.20e6 2.38e6 2.58e6 2.79e6
#> 10 ALB          national 2.51e6 2.57e6 2.62e6 2.67e6 2.73e6 2.78e6 2.84e6 2.90e6
#> # ... with 640 more rows, 36 more variables: `1985` <dbl>, `1986` <dbl>,
#> #   `1987` <dbl>, `1988` <dbl>, `1989` <dbl>, `1990` <dbl>, `1991` <dbl>,
#> #   `1992` <dbl>, `1993` <dbl>, `1994` <dbl>, `1995` <dbl>, `1996` <dbl>,
#> #   `1997` <dbl>, `1998` <dbl>, `1999` <dbl>, `2000` <dbl>, `2001` <dbl>,
#> #   `2002` <dbl>, `2003` <dbl>, `2004` <dbl>, `2005` <dbl>, `2006` <dbl>,
#> #   `2007` <dbl>, `2008` <dbl>, `2009` <dbl>, `2010` <dbl>, `2011` <dbl>,
#> #   `2012` <dbl>, `2013` <dbl>, `2014` <dbl>, `2015` <dbl>, `2016` <dbl>, ...
```
