call a table from .pip env — call_aux • pipr
…
    Value

data frame of auxiliary table

    Examples

# call one table

get_aux("gdp", assign_tb = TRUE, force = TRUE)
#> ℹ Auxiliary table gdp successfully fetched. You can now call it by typing
#> `pipr::call_aux('gdp')`
call_aux("gdp")
#> # A tibble: 219 × 46
#>    country_…¹ data_…²  `1977` `1978` `1979`  `1980`  `1981` `1982` `1983` `1984`
#>    <chr>      <chr>     <dbl>  <dbl>  <dbl>   <dbl>   <dbl>  <dbl>  <dbl>  <dbl>
#>  1 ABW        nation…     NA     NA     NA      NA      NA     NA     NA     NA 
#>  2 AFG        nation…    405.   424.   405.    404.    453.   503.   534.   530.
#>  3 AGO        nation…   3476.  3545.  3538.   3550.   3276.  3162.  3179.  3252.
#>  4 ALB        nation…   1713.  1720.  1729.   1741.   1804.  1818.  1800.  1740.
#>  5 AND        nation…  36082. 35552. 34462.  34014.  32669. 31709. 30897. 30085.
#>  6 ARE        nation… 104937. 90890. 98553. 111574. 108563. 95338. 86109. 85033.
#>  7 ARG        nation…  10104.  9506. 10321.  10318.   9630.  9408.  9660.  9655.
#>  8 ARM        nation…     NA     NA     NA    1586.   1630.  1674.  1684.  1738.
#>  9 ASM        nation…     NA     NA     NA      NA      NA     NA     NA     NA 
#> 10 ATG        nation…   5570.  5826.  6306.   6830.   7099.  7094.  7475.  8234.
#> # … with 209 more rows, 36 more variables: `1985` <dbl>, `1986` <dbl>,
#> #   `1987` <dbl>, `1988` <dbl>, `1989` <dbl>, `1990` <dbl>, `1991` <dbl>,
#> #   `1992` <dbl>, `1993` <dbl>, `1994` <dbl>, `1995` <dbl>, `1996` <dbl>,
#> #   `1997` <dbl>, `1998` <dbl>, `1999` <dbl>, `2000` <dbl>, `2001` <dbl>,
#> #   `2002` <dbl>, `2003` <dbl>, `2004` <dbl>, `2005` <dbl>, `2006` <dbl>,
#> #   `2007` <dbl>, `2008` <dbl>, `2009` <dbl>, `2010` <dbl>, `2011` <dbl>,
#> #   `2012` <dbl>, `2013` <dbl>, `2014` <dbl>, `2015` <dbl>, `2016` <dbl>, …
…
