Get Country Profiles • pipr
…
get_cp() default returns all data available
(country = all) for the default poverty line ($2.15) and
PPP version (2017). If the user specifies
ppp_version = 2011, the default poverty line will be
$1.9.

get_cp() # all countries, default poverty line (2.15) and PPP version (2017)
get_cp(ppp_version = 2011) # all countries, poverty line 1.9.

The user can also specify a single country or a list of countries.
The returned object will be a data frame with the requested data.

get_cp(country = "IDN") # single country
#> Saving response to cache "d050b3be3c6b185690c579f4db697446"
#> # A tibble: 32 × 49
#>    country_code  year poverty_line headcount welfare_time survey_coverage
#>    <chr>        <dbl>        <dbl>     <dbl>        <dbl> <chr>          
#>  1 IDN           1984           NA        NA         1984 N              
#>  2 IDN           1987           NA        NA         1987 N              
#>  3 IDN           1990           NA        NA         1990 N              
#>  4 IDN           1993           NA        NA         1993 N              
#>  5 IDN           1996           NA        NA         1996 N              
#>  6 IDN           1998           NA        NA         1998 N              
#>  7 IDN           1999           NA        NA         1999 N              
#>  8 IDN           2000           NA        NA         2000 N              
#>  9 IDN           2001           NA        NA         2001 N              
#> 10 IDN           2002           NA        NA         2002 N              
#> # ℹ 22 more rows
#> # ℹ 43 more variables: is_interpolated <chr>, survey_acronym <chr>,
#> #   survey_comparability <dbl>, comparable_spell <chr>, welfare_type <chr>,
#> #   headcount_ipl <dbl>, headcount_lmicpl <dbl>, headcount_umicpl <dbl>,
#> #   headcount_national <dbl>, headcount_national_footnote <dbl>, gini <dbl>,
#> #   theil <dbl>, share_b40_female <dbl>, share_t60_female <dbl>,
#> #   share_b40_male <dbl>, share_t60_male <dbl>, share_b40_rural <dbl>, …
…
