Auxiliary tables and the `.pip` environment • pipr
…
The assign_tb option and call_aux are a
powerful idea for developers who need to keep their environments
clean.

# this simulates a `display_aux() call`
get_aux("gdp", assign_tb = TRUE)
#> Pruning cache
#> Error in get(paste0(generic, ".", class), envir = get_method_env()) : 
#>   object 'type_sum.accel' not found
#> ℹ Auxiliary table gdp successfully fetched. You can now call it by typing
#> `pipr::call_aux('gdp')`

# now you can call it
call_aux("gdp")
#> # A tibble: 10,560 × 4
#>    country_code data_level year   value
#>    <chr>        <chr>      <fct>  <dbl>
#>  1 ABW          national   1977     NA 
#>  2 ABW          national   1978     NA 
#>  3 ABW          national   1979     NA 
#>  4 ABW          national   1980     NA 
#>  5 ABW          national   1981     NA 
#>  6 ABW          national   1982     NA 
#>  7 ABW          national   1983     NA 
#>  8 ABW          national   1984     NA 
#>  9 ABW          national   1985     NA 
#> 10 ABW          national   1986  16112.
#> # ℹ 10,550 more rows
…
call_aux("pop")
#> # A tibble: 31,200 × 4
#>    country_code data_level year  value
#>    <chr>        <chr>      <fct> <dbl>
#>  1 ABW          national   1977  61465
#>  2 ABW          rural      1977  30415
#>  3 ABW          urban      1977  31050
#>  4 ABW          national   1978  61738
#>  5 ABW          rural      1978  30559
#>  6 ABW          urban      1978  31179
#>  7 ABW          national   1979  62006
#>  8 ABW          rural      1979  30701
#>  9 ABW          urban      1979  31305
#> 10 ABW          national   1980  62267
#> # ℹ 31,190 more rows
…
